{
  "name": "sillgen/git_user",
  "version": "0.1.0",
  "author": "sillgen",
  "summary": "Creates git user",
  "license": "Apache 2.0",
  "source": "https://bitbucket.org/lgbarn/git_user",
  "project_page": null,
  "issues_url": null,
  "dependencies": [
    {
      "name": "puppetlabs-stdlib",
      "version_requirement": ">= 4.0.0"
    }
  ]
}

